<svg display="none" xmlns="http://www.w3.org/2000/svg" style="fill:#000000;">
  <symbol id="home" viewBox="0 0 26 26">
    <g>
      <path d="M25.76 11.7892L13.5246 0.847919C13.5032 0.826528 13.4818 0.810485 13.4551 0.794442C13.1877 0.537756 12.7599 0.527061 12.4764 0.778399L0.241049 11.7197C-0.0584184 11.987 -0.079809 12.4416 0.182225 12.7411C0.326612 12.9015 0.524474 12.9817 0.722337 12.9817C0.893461 12.9817 1.06459 12.9229 1.20362 12.7999L3.40685 10.8266V11.2116V16.9229V23.5861C3.40685 24.5861 4.21969 25.4043 5.22505 25.4043C5.24109 25.4043 5.25179 25.4043 5.26783 25.4043C5.28387 25.4043 5.29457 25.4043 5.31061 25.4043H9.08604C10.0272 25.4043 10.7919 24.6395 10.7919 23.6984V17.2117C10.7919 17.0673 10.9096 16.9496 11.054 16.9496H14.9524C15.0968 16.9496 15.2144 17.0673 15.2144 17.2117V23.6984C15.2144 24.6395 15.9791 25.4043 16.9203 25.4043H20.7813C21.7974 25.4043 22.5995 24.4043 22.5995 23.1262V17.1796V15.3614V10.8961L24.8028 12.8694C24.9418 12.9924 25.1129 13.0512 25.284 13.0512C25.4819 13.0512 25.6798 12.971 25.8242 12.8106C26.0808 12.5111 26.0541 12.0566 25.76 11.7892ZM21.1503 15.3561V17.1742V23.1155C21.1503 23.6342 20.8936 23.9497 20.776 23.9497H16.915C16.7706 23.9497 16.653 23.8321 16.653 23.6877V17.2117C16.653 16.2705 15.8882 15.5058 14.9471 15.5058H11.0486C10.1074 15.5058 9.34273 16.2705 9.34273 17.2117V23.6984C9.34273 23.8427 9.22508 23.9604 9.0807 23.9604H5.30526C5.28922 23.9604 5.27852 23.9604 5.26248 23.9604C5.24644 23.9604 5.23574 23.9604 5.2197 23.9604C5.01649 23.9604 4.84537 23.7946 4.84537 23.5861V16.9176V11.2063V9.53248L12.9631 2.28108L21.1503 9.602V15.3561Z"/>
    </g>
  </symbol>
  <symbol id="pig" viewBox="0 0 26 26">
    <g>
      <path d="M24.0856 9.50473H23.707C23.0778 7.88907 22.0221 6.42271 20.6144 5.23362C20.4171 4.51911 20.5664 3.74594 21.0729 2.9461C21.3555 2.49286 21.3715 1.94898 21.1156 1.48507C20.8596 1.0265 20.3797 0.743896 19.8625 0.743896C19.8039 0.743896 19.7399 0.749229 19.6812 0.754561C17.735 0.994511 16.5512 1.86366 15.842 2.69016C14.9889 2.42355 13.9064 2.34356 13.7038 2.32757C13.2026 2.27424 12.6907 2.24225 12.1841 2.24225C8.94746 2.24225 5.90276 3.35135 3.60458 5.35627C1.27973 7.38784 0 10.1019 0 12.992C0 13.7385 0.0853155 14.485 0.261279 15.2155C0.266611 15.2315 0.266611 15.2475 0.271943 15.2582L0.277275 15.2849C0.458571 16.0207 0.730514 16.7406 1.07711 17.4284C1.65832 18.6761 2.35151 19.7213 3.13001 20.5264C4.20712 21.6355 4.39375 23.0432 4.42041 23.6084V23.8857C4.42041 23.8964 4.42041 23.9124 4.42041 23.9231C4.42041 23.9817 4.42574 24.035 4.4364 24.0884C4.53772 24.7495 5.10826 25.2561 5.79079 25.2561H9.76329C10.5205 25.2561 11.1337 24.6429 11.1337 23.8857V23.7044C11.6989 23.7471 12.2694 23.7524 12.84 23.7258V23.8857C12.84 24.6429 13.4532 25.2561 14.2104 25.2561H18.1829C18.94 25.2561 19.5532 24.6429 19.5532 23.8857V22.9153C19.5586 22.6913 19.6439 21.6302 20.6517 20.7131C20.6997 20.6704 20.753 20.6277 20.801 20.5851C20.8063 20.5798 20.8063 20.5798 20.8116 20.5744C20.8276 20.5638 20.8383 20.5531 20.849 20.5371C22.1767 19.348 23.1791 17.8976 23.7604 16.314H24.075C25.1361 16.314 25.9999 15.4502 25.9999 14.389V11.419C26.0106 10.3632 25.1467 9.50473 24.0856 9.50473ZM19.8625 2.17826C19.8572 2.17826 19.8572 2.17826 19.8625 2.17826C19.8572 2.17293 19.8572 2.17293 19.8572 2.17293C19.8572 2.17293 19.8572 2.17293 19.8572 2.17826L19.7665 1.46375L19.8625 2.17826ZM24.5709 14.3944C24.5709 14.661 24.3522 14.8796 24.0856 14.8796H23.2538C22.9392 14.8796 22.6566 15.0876 22.5659 15.3862C22.0967 16.9218 21.1636 18.3402 19.8785 19.4866C19.8732 19.492 19.8732 19.492 19.8678 19.4973L19.8625 19.5026C19.8145 19.5453 19.7665 19.588 19.7185 19.6306C19.7132 19.6359 19.7079 19.6413 19.7025 19.6466C18.2788 20.937 18.1349 22.4567 18.1242 22.8939C18.1242 22.8993 18.1242 22.9046 18.1242 22.9099V23.8217H14.285V22.9526C14.285 22.75 14.1997 22.5527 14.0451 22.4194C13.8958 22.2807 13.6878 22.2167 13.4905 22.2381C13.0533 22.2861 12.616 22.3074 12.1841 22.3074C11.6242 22.3074 11.0644 22.2701 10.5151 22.1954C10.3072 22.1688 10.0992 22.2327 9.94459 22.366C9.78995 22.5047 9.6993 22.702 9.6993 22.9099V23.8217H5.86544V23.5925C5.86544 23.5818 5.86544 23.5711 5.86544 23.5605C5.83345 22.8406 5.60416 21.001 4.16979 19.524C3.49793 18.8308 2.89539 17.919 2.3835 16.8099C2.37817 16.7992 2.37284 16.7939 2.37284 16.7832C2.0689 16.1913 1.83428 15.5728 1.67965 14.9383C1.67965 14.9329 1.67432 14.9276 1.67432 14.9223C1.67432 14.9169 1.67432 14.9169 1.67432 14.9116C1.52501 14.2824 1.44503 13.6372 1.44503 12.9973C1.44503 7.86241 6.26536 3.68728 12.1894 3.68728C12.648 3.68728 13.1119 3.71394 13.5652 3.76193C13.5758 3.76193 13.5865 3.76193 13.5972 3.76726C14.1944 3.80459 15.3035 3.95922 15.746 4.19917C16.0713 4.37514 16.4766 4.27382 16.6845 3.96989C17.1484 3.28203 18.0762 2.41288 19.8572 2.19426C19.1373 3.34602 18.924 4.54044 19.2386 5.65487C19.244 5.86283 19.3453 6.06012 19.5053 6.19342C20.945 7.35585 21.9901 8.83287 22.5233 10.4592C22.6193 10.7525 22.8965 10.9551 23.2058 10.9551C23.2111 10.9551 23.2111 10.9551 23.2165 10.9551H24.091C24.3576 10.9551 24.5762 11.1737 24.5762 11.4403V14.3944H24.5709Z"/>

    </g>
  </symbol>
  <symbol id="star" viewBox="0 0 26 26">
    <g>
      <path d="M25.9643 9.96893C25.879 9.70745 25.6548 9.52068 25.3827 9.47799L17.2714 8.32533L13.6213 0.987814C13.4986 0.74234 13.2478 0.587585 12.9756 0.587585C12.7035 0.587585 12.4526 0.74234 12.3299 0.99315L8.72785 8.35201L0.616562 9.55803C0.344406 9.60072 0.120278 9.7875 0.0348964 10.049C-0.0504856 10.3105 0.0242237 10.5986 0.22167 10.7854L6.10769 16.49L4.74692 24.5693C4.69889 24.8414 4.81095 25.1136 5.03508 25.2737C5.15782 25.3644 5.30724 25.4124 5.45666 25.4124C5.57406 25.4124 5.68612 25.3857 5.79285 25.327L13.0343 21.4902L20.2971 25.2843C20.4038 25.3377 20.5159 25.3644 20.628 25.3644C21.0229 25.3644 21.3484 25.0389 21.3484 24.644C21.3484 24.5853 21.343 24.5319 21.327 24.4785L19.9236 16.4473L25.7722 10.7107C25.9804 10.5186 26.0497 10.2304 25.9643 9.96893ZM18.6535 15.6842C18.4827 15.8496 18.408 16.0898 18.4507 16.3246L19.6728 23.3312L13.3652 20.0387C13.157 19.9266 12.9062 19.9319 12.6928 20.0387L6.40653 23.3686L7.58587 16.3512C7.62322 16.1164 7.54852 15.8816 7.37775 15.7162L2.27617 10.7641L9.31486 9.71812C9.54966 9.68077 9.75244 9.53669 9.85383 9.32323L12.9809 2.93559L16.1508 9.30722C16.2575 9.52068 16.4603 9.66476 16.6951 9.70212L23.7391 10.7054L18.6535 15.6842Z"/>
    </g>
  </symbol>
  <symbol id="round" viewBox="0 0 26 26">
    <g>
      <path d="M22.4766 13.6578H12.3452V3.52635C12.3452 3.11694 12.0176 2.78942 11.6082 2.78942C5.21057 2.78942 0.00292969 7.99706 0.00292969 14.3947C0.00292969 20.7924 5.21057 26 11.6082 26C18.0059 26 23.2135 20.7924 23.2135 14.3947C23.2135 13.9908 22.8805 13.6578 22.4766 13.6578ZM11.6082 24.5261C6.02393 24.5261 1.47679 19.979 1.47679 14.3947C1.47679 9.05606 5.62544 4.66723 10.8713 4.29057V14.3947C10.8713 14.8041 11.1988 15.1316 11.6082 15.1316H21.7124C21.3357 20.3775 16.9469 24.5261 11.6082 24.5261Z"/>
      <path d="M25.9975 11.5671C25.9866 8.75037 24.9549 6.03737 23.0934 3.92484C20.8881 1.43019 17.722 0 14.3922 0C13.9828 0 13.6553 0.327525 13.6553 0.73693V11.6053C13.6553 12.0147 13.9828 12.3422 14.3922 12.3422H25.2606C25.67 12.3422 25.9975 12.0147 25.9975 11.6053C25.9975 11.5944 25.9975 11.5835 25.9975 11.5671ZM15.1291 10.8738V1.50661C17.7602 1.69767 20.2276 2.91497 21.9853 4.90741C23.4592 6.57233 24.3326 8.66849 24.4963 10.8738H15.1291Z"/>
    </g>
  </symbol>
  <symbol id="arrow" viewBox="0 0 26 26">
    <g>
      <path d="M25.7774 0.226105C25.5612 0.00991783 25.2286 -0.0510581 24.9515 0.0708937L0.450261 10.8082C0.189727 10.9246 0.0178862 11.174 0.00125639 11.4568C-0.0153734 11.7395 0.134295 12.0055 0.378198 12.1441L8.92037 16.9889L13.9925 25.6198C14.1255 25.8471 14.3749 25.9912 14.6355 25.9912C14.6521 25.9912 14.6632 25.9912 14.6798 25.9912C14.9625 25.9746 15.2064 25.8027 15.3228 25.5422L25.9382 1.05205C26.0601 0.769345 25.9992 0.442292 25.7774 0.226105ZM21.8805 3.04763L9.34165 15.5033L2.41812 11.5787L21.8805 3.04763ZM14.5357 23.591L10.406 16.5566L23.0169 4.02878L14.5357 23.591Z"/>
    </g>
  </symbol>
  <symbol id="human" viewBox="0 0 26 26">
    <g>
      <path d="M11.9057 14.0095C11.9327 14.0095 11.9596 14.0095 11.9919 14.0095C12.0026 14.0095 12.0134 14.0095 12.0242 14.0095C12.0403 14.0095 12.0619 14.0095 12.078 14.0095C13.6556 13.9826 14.9316 13.428 15.8738 12.3674C17.9467 10.0306 17.6021 6.02485 17.5645 5.64258C17.4299 2.77283 16.0731 1.39988 14.9532 0.759163C14.1186 0.279975 13.1441 0.0215366 12.0565 0H12.0188C12.0134 0 12.0026 0 11.9973 0H11.965C11.3673 0 10.1936 0.0969145 9.06829 0.737627C7.93762 1.37834 6.55928 2.75129 6.42468 5.64258C6.38699 6.02485 6.0424 10.0306 8.1153 12.3674C9.05214 13.428 10.3282 13.9826 11.9057 14.0095ZM7.86224 5.77718C7.86224 5.76103 7.86763 5.74487 7.86763 5.73411C8.0453 1.87368 10.7858 1.4591 11.9596 1.4591H11.9811C11.9919 1.4591 12.008 1.4591 12.0242 1.4591C13.4779 1.49141 15.9492 2.08366 16.1161 5.73411C16.1161 5.75026 16.1161 5.76641 16.1215 5.77718C16.1269 5.81487 16.5038 9.47608 14.7916 11.4036C14.1132 12.1682 13.2087 12.545 12.0188 12.5558C12.008 12.5558 12.0026 12.5558 11.9919 12.5558C11.9811 12.5558 11.9757 12.5558 11.965 12.5558C10.7804 12.545 9.87053 12.1682 9.19751 11.4036C7.49074 9.48685 7.85686 5.80948 7.86224 5.77718Z"/>
      <path d="M23.0563 20.6536C23.0563 20.6482 23.0563 20.6428 23.0563 20.6374C23.0563 20.5943 23.0509 20.5513 23.0509 20.5028C23.0186 19.4367 22.9486 16.9439 20.6119 16.147C20.5957 16.1416 20.5742 16.1363 20.558 16.1309C18.1298 15.5117 16.1107 14.1118 16.0892 14.0957C15.7607 13.8642 15.3085 13.9449 15.077 14.2734C14.8454 14.6018 14.9262 15.0541 15.2546 15.2856C15.3462 15.3502 17.4891 16.8416 20.1704 17.5308C21.4249 17.9776 21.5648 19.3183 21.6025 20.5459C21.6025 20.5943 21.6025 20.6374 21.6079 20.6805C21.6133 21.1651 21.581 21.9134 21.4949 22.3442C20.6226 22.8395 17.2037 24.5517 12.0026 24.5517C6.82308 24.5517 3.38262 22.8341 2.505 22.3388C2.41886 21.9081 2.38117 21.1597 2.39194 20.6751C2.39194 20.632 2.39732 20.5889 2.39732 20.5405C2.43501 19.3129 2.575 17.9723 3.8295 17.5254C6.5108 16.8362 8.65369 15.3394 8.74522 15.2802C9.07365 15.0487 9.15441 14.5964 8.92289 14.268C8.69138 13.9395 8.23911 13.8588 7.91068 14.0903C7.88914 14.1064 5.88086 15.5063 3.44184 16.1255C3.42031 16.1309 3.40415 16.1363 3.388 16.1416C1.05129 16.9439 0.981293 19.4367 0.948988 20.4974C0.948988 20.5459 0.948988 20.5889 0.943604 20.632C0.943604 20.6374 0.943604 20.6428 0.943604 20.6482C0.93822 20.9281 0.932836 22.3657 1.2182 23.0872C1.27204 23.2272 1.36895 23.3456 1.49817 23.4264C1.65969 23.5341 5.53089 26 12.008 26C18.4851 26 22.3563 23.5287 22.5178 23.4264C22.6417 23.3456 22.744 23.2272 22.7978 23.0872C23.067 22.3711 23.0616 20.9335 23.0563 20.6536Z"/>
    </g>
  </symbol>
  <symbol id="folder" viewBox="0 0 26 26">
    <g>
      <path d ="M21.8234 4.287H15.6638C14.1671 4.287 12.946 3.07129 12.946 1.56921C12.946 1.16397 12.6218 0.839783 12.2165 0.839783H4.17664C1.8749 0.839783 0 2.71468 0 5.01642V18.9836C0 21.2853 1.8749 23.1602 4.17664 23.1602H21.8234C24.1251 23.1602 26 21.2853 26 18.9836V8.45824C26 6.15649 24.1251 4.287 21.8234 4.287ZM24.5411 18.9782C24.5411 20.4749 23.3254 21.696 21.8234 21.696H4.17664C2.67997 21.696 1.45885 20.4803 1.45885 18.9782V5.01642C1.45885 3.51975 2.67456 2.29864 4.17664 2.29864H11.552C11.8978 4.25458 13.6106 5.74585 15.6638 5.74585H21.8234C23.32 5.74585 24.5411 6.96156 24.5411 8.46364V18.9782Z"/>
    </g>
  </symbol>
  <symbol id="phone" viewBox="0 0 26 26">
    <g>
      <path d="M20.5483 16.1061C20.016 15.5518 19.374 15.2555 18.6936 15.2555C18.0186 15.2555 17.3711 15.5463 16.8168 16.1006L15.0828 17.8291C14.9401 17.7523 14.7975 17.681 14.6603 17.6096C14.4627 17.5109 14.2761 17.4176 14.117 17.3188C12.4927 16.2872 11.0166 14.9427 9.60081 13.2032C8.91487 12.3362 8.45393 11.6063 8.11919 10.8655C8.56916 10.454 8.98621 10.0259 9.39229 9.61438C9.54593 9.46073 9.69958 9.3016 9.85323 9.14795C11.0056 7.99558 11.0056 6.50298 9.85323 5.35061L8.35515 3.85253C8.18504 3.68242 8.00944 3.50682 7.84482 3.33122C7.51557 2.991 7.16986 2.6398 6.81317 2.31055C6.28089 1.78375 5.64434 1.50389 4.97487 1.50389C4.30539 1.50389 3.65787 1.78375 3.10912 2.31055C3.10364 2.31604 3.10364 2.31604 3.09815 2.32153L1.23241 4.20373C0.530009 4.90613 0.129423 5.76217 0.0416231 6.75541C-0.0900763 8.35775 0.381847 9.85034 0.74402 10.8271C1.63299 13.2251 2.96096 15.4476 4.94194 17.8291C7.34546 20.6991 10.2374 22.9654 13.5408 24.5623C14.8029 25.1604 16.4876 25.8683 18.3698 25.989C18.485 25.9945 18.6058 26 18.7155 26C19.9831 26 21.0477 25.5445 21.8818 24.6391C21.8873 24.6281 21.8982 24.6226 21.9037 24.6117C22.1891 24.266 22.5183 23.9532 22.864 23.6184C23.1 23.3934 23.3415 23.1575 23.5774 22.9105C24.1207 22.3453 24.406 21.6868 24.406 21.0119C24.406 20.3314 24.1152 19.6784 23.561 19.1297L20.5483 16.1061ZM22.5128 21.8844C22.5074 21.8844 22.5074 21.8899 22.5128 21.8844C22.2988 22.1149 22.0793 22.3234 21.8434 22.5539C21.4867 22.8941 21.1245 23.2508 20.7843 23.6514C20.2301 24.244 19.577 24.5239 18.721 24.5239C18.6387 24.5239 18.5509 24.5239 18.4686 24.5184C16.8388 24.4141 15.3242 23.7776 14.1883 23.2343C11.0824 21.7307 8.35515 19.5961 6.08882 16.8908C4.21759 14.6354 2.96645 12.5502 2.13784 10.3113C1.6275 8.94491 1.44093 7.88034 1.52324 6.87613C1.57812 6.2341 1.82505 5.70181 2.28051 5.24635L4.15174 3.37512C4.42063 3.1227 4.70598 2.98551 4.98584 2.98551C5.33155 2.98551 5.61141 3.19403 5.78701 3.36963C5.7925 3.37512 5.79799 3.38061 5.80347 3.3861C6.13821 3.69888 6.45648 4.02264 6.79122 4.36835C6.96133 4.54395 7.13693 4.71955 7.31253 4.90064L8.81061 6.39872C9.39229 6.98039 9.39229 7.51817 8.81061 8.09984C8.65148 8.25898 8.49783 8.41811 8.33869 8.57176C7.87774 9.04369 7.43874 9.48268 6.96133 9.91071C6.95036 9.92168 6.93938 9.92717 6.9339 9.93814C6.46197 10.4101 6.54977 10.871 6.64855 11.1838C6.65403 11.2003 6.65952 11.2167 6.66501 11.2332C7.05462 12.177 7.60337 13.066 8.43746 14.1251L8.44295 14.1306C9.9575 15.9963 11.5544 17.4505 13.3158 18.5645C13.5408 18.7071 13.7713 18.8224 13.9908 18.9321C14.1883 19.0309 14.3749 19.1242 14.5341 19.223C14.556 19.2339 14.578 19.2504 14.5999 19.2614C14.7865 19.3547 14.9621 19.3986 15.1432 19.3986C15.5986 19.3986 15.884 19.1132 15.9773 19.0199L17.854 17.1432C18.0406 16.9566 18.3369 16.7316 18.6826 16.7316C19.0228 16.7316 19.3027 16.9457 19.4728 17.1322C19.4783 17.1377 19.4783 17.1377 19.4838 17.1432L22.5074 20.1668C23.0726 20.7265 23.0726 21.3027 22.5128 21.8844Z"/>
      <path d="M14.0509 6.18472C15.4887 6.42617 16.7947 7.10662 17.8373 8.14924C18.8799 9.19186 19.5549 10.4979 19.8018 11.9356C19.8622 12.2978 20.175 12.5502 20.5316 12.5502C20.5755 12.5502 20.614 12.5447 20.6579 12.5392C21.0639 12.4734 21.3328 12.0892 21.267 11.6832C20.9706 9.94364 20.1475 8.35776 18.8909 7.10113C17.6343 5.8445 16.0484 5.02138 14.3089 4.72505C13.9028 4.6592 13.5241 4.92809 13.4528 5.32867C13.3815 5.72926 13.6449 6.11887 14.0509 6.18472Z"/>
      <path d="M25.9699 11.4692C25.4816 8.6047 24.1316 5.99815 22.0574 3.92388C19.9831 1.84961 17.3765 0.499695 14.5121 0.0113093C14.1115 -0.0600279 13.7329 0.214346 13.6615 0.614932C13.5957 1.02101 13.8646 1.39964 14.2706 1.47098C16.8278 1.90449 19.16 3.11722 21.0147 4.9665C22.8695 6.82127 24.0768 9.15345 24.5103 11.7106C24.5706 12.0728 24.8834 12.3252 25.2401 12.3252C25.284 12.3252 25.3224 12.3197 25.3663 12.3142C25.7669 12.2539 26.0413 11.8697 25.9699 11.4692Z"/>
    </g>
  </symbol>
  <symbol id="love" viewBox="0 0 26 26">
    <g>
      <path d="M22.1893 3.81072C19.7341 1.35553 16.4732 0 13 0C9.52682 0 6.26593 1.35553 3.81073 3.81072C-0.925446 8.5469 -1.26841 16.1139 2.9506 21.242C2.36811 22.4343 1.68218 23.2291 0.9037 23.6101C0.430082 23.8442 0.163331 24.3559 0.239546 24.8786C0.321204 25.4066 0.724052 25.8149 1.25211 25.8966C1.54063 25.9401 1.85094 25.9673 2.17213 25.9673C3.76718 25.9673 5.4439 25.4175 6.84298 24.4539C8.72656 25.4665 10.8442 26 13 26C16.4732 26 19.7341 24.6499 22.1893 22.1947C24.6445 19.7395 25.9946 16.4732 25.9946 13.0054C25.9946 9.53769 24.6445 6.26591 22.1893 3.81072ZM21.1495 21.1495C18.972 23.3271 16.0758 24.5247 13 24.5247C10.9422 24.5247 8.92254 23.9749 7.16417 22.9405C7.04985 22.8752 6.91919 22.8371 6.79398 22.8371C6.63611 22.8371 6.4728 22.8915 6.34214 22.9895C4.67631 24.2797 2.9996 24.4703 2.26467 24.4866C3.14114 23.8333 3.87606 22.8208 4.49122 21.4108C4.60554 21.1495 4.55655 20.8446 4.36601 20.6269C0.337536 16.0758 0.549847 9.14028 4.85052 4.83961C7.02807 2.66206 9.92422 1.46441 13 1.46441C16.0758 1.46441 18.972 2.66206 21.1495 4.83961C25.6462 9.34171 25.6462 16.6583 21.1495 21.1495Z" />
      <path d="M18.443 8.71022H7.55524C7.14695 8.71022 6.82031 9.03685 6.82031 9.44515C6.82031 9.85344 7.14695 10.1801 7.55524 10.1801H18.443C18.8513 10.1801 19.1779 9.85344 19.1779 9.44515C19.1779 9.03685 18.8459 8.71022 18.443 8.71022Z"/>
      <path d="M18.443 12.2651H7.55524C7.14695 12.2651 6.82031 12.5917 6.82031 13C6.82031 13.4083 7.14695 13.7349 7.55524 13.7349H18.443C18.8513 13.7349 19.1779 13.4083 19.1779 13C19.1779 12.5917 18.8459 12.2651 18.443 12.2651Z" />
      <path d="M18.443 15.8199H7.55524C7.14695 15.8199 6.82031 16.1466 6.82031 16.5549C6.82031 16.9631 7.14695 17.2898 7.55524 17.2898H18.443C18.8513 17.2898 19.1779 16.9631 19.1779 16.5549C19.1779 16.1466 18.8459 15.8199 18.443 15.8199Z"/>
    </g>
  </symbol>
</svg>
