<svg width="645" height="300" viewBox="0 0 645 300" fill="none" xmlns="http://www.w3.org/2000/svg">
<rect width="623" height="5.00005" transform="matrix(-1 -8.74228e-08 -8.74228e-08 1 645 0.000488281)" fill="#0F1C31"/>
<rect width="293" height="5.00001" transform="matrix(-4.37114e-08 1 1 4.37114e-08 22 0)" fill="#0F1C31"/>
<rect x="24.7488" y="299.382" width="35" height="5" transform="rotate(-135 24.7488 299.382)" fill="#0F1C31"/>
<rect x="49.811" y="274.536" width="35" height="5" transform="rotate(135 49.811 274.536)" fill="#0F1C31"/>
</svg>
